469234 694017 509
528538 62594 470
344821 550158 470
807408 467577 509
533113 591141 452
897456 796294 525
331346 827512 509
496059 849431 525
133101 856379 525
937112 417364 525
522251 418470 470
396048 575322 470
478660 727446 509
643078 645211 310
689500 78311 509
524053 999873 525
482756 355145 449
298928 505933 449
509137 36563 449
362056 38409 443
551228 377557 470
258225 483348 449
810889 110642 509
157999 971383 525
522189 354245 470
119399 752448 509
114833 357059 443
548345 687378 509
85181 162836 383
378865 2823 443
777493 66961 509
627542 968459 525
952782 424246 525
682821 588004 509
419895 5159 449
317673 44572 443
702166 762384 504
550771 584102 434
35904 586581 470
121667 47932 354
867098 46493 525
745995 260125 509
966208 26026 525
563249 921568 525
313146 481708 449
25697 999882 525
315204 443712 449
89562 867081 525
715516 381929 509
852732 777163 525
118739 982298 525
571501 675252 509
308487 494680 449
226658 155911 386
165529 744685 509
617093 113612 470
519820 784833 509
157269 19809 383
631923 678202 442
966913 814571 525
994586 961977 458
121881 690563 509
462631 556327 470
425236 174310 449
375639 506770 449
868767 251197 525
946794 741291 525
654813 682060 442
211784 868772 525
78825 574888 470
763148 186256 509
75700 764771 509
903937 631772 525
42703 66061 340
955991 231861 525
619393 55407 470
244230 76603 443
3166 221896 386
397908 960465 525
763407 908864 525
37472 750372 509
898544 802424 525
544753 582148 452
762859 442864 509
844376 573505 525
50724 345521 443
746500 37149 509
158430 211464 373
765461 862 509
481862 631828 509
702960 645415 442
900153 711688 525
392016 218251 443
922096 648647 525
64608 23848 340
599715 711705 509
671947 266602 509
305808 289683 371
773325 874178 525
325917 866608 525
456838 660404 509
140313 667437 509
653810 374377 509
173208 152663 383
42144 546738 470
947618 626683 525
40449 963137 525
938474 986091 507
675515 665487 398
358986 152595 443
94780 845961 525
285874 91417 443
811653 577324 509
168597 317733 443
168255 610180 470
440814 3350 449
477960 634913 509
590333 999297 525
635818 168776 509
418308 557214 470
715488 826244 468
613668 514636 452
850478 649404 525
554377 552629 421
968183 815565 525
335873 163757 443
282904 845742 525
728816 673984 504
995502 897373 507
952836 400667 525
489219 174329 449
140713 728659 509
580641 118832 470
223725 253275 443
868813 308504 525
555448 622149 447
250708 928679 525
772364 544795 509
112504 934969 525
241958 955549 525
395469 187901 443
614265 738854 509
520277 111049 470
623053 417702 470
32855 291025 443
106099 855176 525
62361 493429 449
157078 425822 449
157527 410765 449
849578 737301 525
332174 930744 525
446962 871816 525
599166 693502 509
248610 790422 509
64222 421956 449
700447 263980 509
544486 901619 525
520502 211253 470
474982 106885 449
512727 877119 525
804686 134846 509
154040 277621 443
201410 15229 383
86496 952155 525
112386 451554 449
485117 141736 449
705 511944 470
95333 432227 449
827393 64069 509
801308 308415 509
636451 553543 509
99268 255357 443
310316 448977 449
241270 644787 509
213492 578659 470
383817 639431 509
843722 580875 525
914944 401151 525
842712 842245 282
590865 323732 470
986015 782337 525
212239 935599 525
238566 582647 470
403066 781128 509
83449 798541 509
808026 605227 509
110421 995684 525
617328 374087 470
38861 231570 443
389096 955823 525
748393 162944 509
961857 719741 525
645088 818675 504
254436 261587 363
517026 827983 509
263049 396179 441
178165 613367 470
972276 195554 525
242818 211462 443
535767 356817 470
12818 535217 470
298310 738804 509
982678 332781 525
859877 346866 525
778546 106944 509
381075 847328 525
381665 362858 423
390073 533383 470
552191 936886 525
437258 568559 470
927382 684787 525
139148 339567 443
426779 804626 509
46547 313311 443
33889 21393 308
751735 281543 509
119403 598213 470
839045 418209 525
770255 426864 509
808776 505221 509
606255 627689 509
15441 634219 509
574666 16498 470
210489 398448 443
388626 236786 441
107403 658795 509
510624 648008 509
775071 944894 525
348960 795811 509
744097 818517 468
356561 432506 449
144749 32951 375
86707 975630 525
477231 427384 444
472515 981290 525
814675 589822 509
810972 636160 504
744534 763684 424
886356 407659 525
925120 272744 525
434914 915406 525
480375 613821 470
219611 139476 386
152828 22443 375
674230 176889 509
154748 861357 525
574560 928788 525
391064 900010 525
545966 515547 439
84325 507745 449
